code,name,demonym,visa_out,visa_in,symbol
1,ALBORAN Y PEREJIL ISLAS,ALBORAN,n,y,
13,AFGANISTAN,AFGANA,n,y,AFG
17,ALBANIA,ALBANESA,n,y,ALB
23,ALEMANIA,ALEMANA,n,n,DEU
37,ANDORRA,ANDORRANA,n,n,AND
40,ANGOLA,ANGOLESA,n,y,AGO
43,ANTIGUA Y BARBUDA,ANTIGUANA,n,n,ATG
44,ANTILLAS NEERLANDESAS,HOLANDESA,n,n,ANT
53,ARABIA,ARABE,n,y,SAU
55,ARABIA SAUDITA,SAUDITA,n,y,SAU
59,ARGELIA,ARGELINA,n,y,DZA
63,ARGENTINA,ARGENTINA,n,n,ARG
65,ARMENIA,ARMENIA,n,y,ARM
67,ARUBA,HOLANDESA,n,n,ABW
69,AUSTRALIA,AUSTRALIANA,n,n,AUS
72,AUSTRIA,AUSTRIACA,n,n,AUT
75,AZERBAIYAN,AZERBAIYANA,n,y,AZE
77,BAHAMAS,BAHAMEÑA,n,n,BHS
80,BAHREIN,BAHRENITA,n,y,BHR
81,BANGLADESH,BENGALESA,n,y,BGD
83,BARBADOS,BARBADIANA,n,n,BRB
85,BELARUS,BIELORRUSA,n,y,BLR
87,BELGICA,BELGA,n,n,BEL
88,BELICE,BELICEÑA,n,n,BLZ
89,BENIN,BENINESA,n,y,BEN
90,BERMUDAS,BRITANICA,n,n,BMU
97,BOLIVIA,BOLIVIANA,n,n,BOL
99,BOSNIA,BOSNIA,n,y,BIH
101,BOTSWANA,BETCHUANA,n,y,BWA
105,BRASIL,BRASILEÑA,n,n,BRA
108,BRUNEI DARUSSALAM,BRUENANA,n,n,BRN
111,BULGARIA,BULGARA,n,y,BGR
113,BURKINA FASO,BURKINESA,n,y,BFA
115,BURUNDI,BURUNDINESA,n,y,BDI
117,BHUTAN,BHUTANESA,n,y,BTN
127,CABO VERDE,CABOVERDIANA,n,y,CPV
137,CAIMAN ISLAS,BRITANICA,n,n,CYM
141,CAMBOYA,CAMBOYANA,n,y,KHM
145,CAMERUN,CAMERUNENSE,n,y,CMR
149,CANADA,CANADIENSE,n,n,CAN
151,CHAD,CHADIANA,n,y,TCD
155,CEUTA Y MELILLA,ESPAÑOLA,n,n,ESP
169,COLOMBIA,COLOMBIANA,n,n,COL
171,COMORAS,COMORANA,n,y,COM
177,REP. DEMOC. DEL CONGO,CONGOLESA,n,y,COD
190,COREA DEL SUR,COREANA,n,n,KOR
193,COTE D`IVOIRE,MARFILENSE,n,y,CIV
196,COSTA RICA,COSTARRICENSE,n,n,CRI
198,CROACIA,CROATA,n,n,HRV
199,CUBA,CUBANA,n,y,CUB
201,CURAZAO,HOLANDESA,n,n,ANT
207,REPUBLICA CHECA,CHECA,n,n,CZE
211,CHILE,CHILENA,n,n,CHL
215,CHINA,CHINA,n,n,CHN
218,TAIWAN,TAIWANESA,n,n,TWN
221,CHIPRE,CHIPRIOTA,n,n,CYP
232,DINAMARCA,DANESA,n,n,DNK
233,DJIBOUTI,DJIBOUTIENSE,n,n,DJI
235,DOMINICA,DOMINICA,n,n,DMA
239,ECUADOR,ECUATORIANA,n,n,ECU
240,EGIPTO,EGIPCIA,n,y,EGY
242,EL SALVADOR,SALVADOREÑA,n,n,SLV
244,EMIRATOS ARABES,ARABE,n,y,ARE
245,ESPAÑA,ESPAÑOLA,n,n,ESP
246,ERITREA,ERITREA,n,y,ERI
247,ESLOVAQUIA,ESLOVACA,n,n,SVK
248,ESLOVENIA,ESLOVENIA,n,n,SVN
249,ESTADOS UNIDOS DE AMERICA,ESTADOUNIDENSE,n,n,USA
251,ESTONIA,ESTONIA,n,n,EST
253,ETIOPIA,ETIOPE,n,n,ETH
255,FIJI,FIJIANA,n,y,FJI
267,FILIPINAS,FILIPINA,n,n,PHL
271,FINLANDIA,FINLANDESA,n,n,FIN
275,FRANCIA,FRANCESA,n,n,FRA
281,GABON,GABONESA,n,y,GAB
285,GAMBIA,GAMBIANA,n,y,GMB
287,GEORGIA,GEORGIANA,n,y,GEO
289,GHANA,GHANESA,n,y,GHA
293,GIBRALTAR,BRITANICA,n,n,GIB
297,GRANADA,GRANADINA,n,n,GRD
301,GRECIA,GRIEGA,n,n,GRC
315,GROENLANDIA,DANESA,n,n,GRL
317,GUATEMALA,GUATEMALTECA,n,n,GTM
325,GUYANA,GUYANESA,n,n,GUY
329,GUINEA,GUINEA,n,y,GIN
331,GUINEA ECUATORIAL,ECUATOGUINEANA,n,y,GNQ
334,GUINEA BISSAU,GUINEANA,n,y,GNB
338,GUADALUPE,FRANCESA,n,y,GLP
339,GUAM,ESTADOUNIDENSE,n,n,GUM
340,GUAYANA FRANCESA,FRANCESA,n,n,GUF
341,HAITI,HAITIANA,n,y,HTI
345,HONDURAS,HONDUREÑA,n,n,HND
347,HONG KONG,CHINA,n,y,HKG
355,HUNGRIA,HUNGARA,n,n,HUN
361,INDIA,INDIA,n,y,IND
365,INDONESIA,INDONESIA,n,n,IDN
369,IRAQ,IRAQUI,n,y,IRQ
372,IRAN,IRANI,n,y,IRN
375,IRLANDA DEL SUR,IRLANDESA,n,n,IRL
379,ISLANDIA,ISLANDESA,n,n,ISL
380,ISLA DE MAN,BRITANICA,n,n,GBR
381,ISLA DE PITCAIRN,BRITANICA,n,n,PCN
382,ISLA JOHNSTON,ESTADOUNIDENSE,n,n,USA
383,ISRAEL,ISRAELI,n,n,ISR
384,ISLAS ALAND,FINLANDESA,n,n,FIN
385,ISLA WAKE,ESTODOUNIDENSE,n,n,USA
386,ITALIA,ITALIANA,n,n,ITA
387,ISLAS CHRISTMAS,AUSTRALIANA,n,n,CXR
388,ISLAS COOK,NEOZELANDESA,n,n,COK
389,ISLAS DEL CANAL,BRITANICA,n,n,GBR
390,ISLAS FEROE,DANESA,n,n,FRO
391,JAMAICA,JAMAIQUINA,n,n,JAM
392,ISLAS MARIANAS DEL NORTE,ESTODOUNIDENSE,n,n,USA
393,ISLAS MIDWAY,ESTADOUNIDENSE,n,n,USA
394,ISLAS WALLIS Y FUTUNA,FRANCESA,n,n,WLF
395,ISLAS SALOMON,SALOMONICA,n,y,SLB
397,IRIAN JAYA,INDONESIA,n,n,
399,JAPON,JAPONESA,n,n,JPN
403,JORDANIA,JORDANA,n,y,JOR
406,KAZAJSTAN,KAZAQUI,n,y,KAZ
410,KENYA,KENYANA,n,y,KEN
411,KIRIBATI,KIRIBATI,n,y,KIR
412,KIRGUISTAN,KIRGUENSE,n,y,KGZ
413,KUWAIT,KUWAITI,n,y,KWT
414,KOSOVO,PRISTINA,n,y,
415,KYRGYZSTAN,KYRGYZSTANY,n,n,
420,REP. DEMOC. POPULAR LAO,LAOSEANA,n,y,LAO
426,LESOTHO,LESOTHA,n,y,LSO
428,LETONIA,LETONA,n,y,LVA
429,LITUANIA,LITUANA,n,n,LTU
431,LIBANO,LIBANESA,n,y,LBN
434,LIBERIA,LIBERIANA,n,y,LBR
438,LIBIA,LIBIO,n,y,LBY
441,LIECHTENSTEIN,LIECHTENSTEIN,n,n,LIE
442,LUXEMBURGO,LUXEMBURGUES,n,n,LUX
447,MACAO,CHINA,n,y,MAC
448,MACEDONIA,MACEDONIA,n,y,MKD
450,MADAGASCAR,MALGACHE,n,y,MDG
455,MALASIA,MALAYA,n,n,MYS
458,MALAWI,MALAWI,n,y,MWI
461,MALDIVAS,MALDIVIA,n,y,MDV
464,MALI,MALINESA,n,y,MLI
467,MALTA,MALTESA,n,n,MLT
474,MARRUECOS,MARROQUI,n,y,MAR
475,ISLAS MARSHALL,MARSHALLINA,n,y,MHL
485,MAURICIO,MAURICIANA,n,y,MUS
488,MAURITANIA,MAURITANA,n,y,MRT
490,MARTINICA,FRANCESA,n,n,MTQ
493,MEXICO,MEXICANA,n,n,MEX
494,MAYOTTE,FRANCESA,n,n,MYT
495,REPUBLICA DE MOLDOVA,MOLDAVA,n,y,MDA
496,MONACO,MONEGASCA,n,n,MCO
497,MONGOLIA,MONGOL,n,y,MNG
499,MONTENEGRO,MONTENEGRO,n,y,MNE
501,MONTSERRAT,BRITANICA,n,n,MSR
503,MICRONESIA,MICRONESIA,n,y,FSM
505,MOZAMBIQUE,MOZAMBIQUEÑA,n,y,MOZ
507,MYANMAR,BIRMANA,n,y,MMR
508,NAURU,NAURUANA,n,y,NRU
512,NAMIBIA,NAMIBIA,n,y,NAM
517,NEPAL,NEPALESA,n,y,NPL
521,NICARAGUA,NICARAGUENSE,n,y,NIC
525,NIGERIA,NIGERIANA,n,y,NGA
528,NIGER,NIGERINA,n,y,NER
531,NIUE,NEOZELANDESA,n,n,NIU
538,NORUEGA,NORUEGA,n,n,NOR
539,NUEVA CALEDONIA,FRANCESA,n,n,NCL
540,NUEVA ZELANDIA,NEOZELANDESA,n,n,NZL
542,OMAN,OMANI,n,y,OMN
545,PAPUA NVA GUINEA,PAPUA,n,y,PNG
548,NUEVA ZELANDIA,NEOZELANDESA,n,n,NZL
556,OMAN,OMAN,n,y,OMN
573,PAISES BAJOS,HOLANDESA,n,n,NLD
576,PAKISTAN,PAKISTANI,n,y,PAK
578,PALAU,PALAUENSE,n,y,PLW
580,PANAMA,PANAMEÑA,n,n,PAN
582,PAPUA NUEVA GUINEA,PAPUES,n,y,PNG
586,PARAGUAY,PARAGUAYA,n,n,PRY
589,PERU,PERUANA,n,n,PER
600,PALESTINA,PALESTINA,n,y,PSE
603,POLONIA,POLACA,n,y,POL
607,PORTUGAL,PORTUGUESA,n,n,PRT
609,POLINESIA FRANCESA,FRANCESA,n,n,PYF
611,PUERTO RICO,ESTADOUNIDENSE,n,n,PRI
618,QATAR,QATARIANA,n,y,QAT
628,REINO UNIDO,BRITANICA,n,n,GBR
640,R. CENTROAFRICANA,CENTROAFRICANA,n,y,CAF
643,REPUBLICA DE BELARRUS,REPUBLICA DE BELARRUS,n,y,BLR
645,REPUBLICA DE CHECHENIA,CHECHENO,n,y,
647,REPUBLICA DOMINICANA,DOMINICANA,n,n,DOM
649,REPUBLICA CHECA,CHECA,n,n,CZE
650,REUNION,FRANCESA,n,n,REU
651,COREA DEL NORTE,NORCOREANA,n,y,PRK
670,RUMANIA,RUMANA,n,n,ROU
673,RUSIA,RUSA,n,y,RUS
675,RWANDA,RWANDESA,n,y,RWA
676,TRASJORDANIA,TRANSJORDANA,n,y,
680,SAHARA OCCIDENTAL,MARROQUI,n,y,ESH
682,SAINT-PIERRE Y MIQUELON,FRANCESA,n,n,SPM
695,SAN CRISTOBAL Y NEVIS,SANCRISTOBALENSE,n,n,KNA
698,SAMOA ESTADOUNIDENSE,ESTADOUNIDENSE,n,n,ASM
699,SAMOA OCCIDENTAL,SAMOANA,n,y,WSM
701,SAN MARINO,SANMARINENSE,n,n,SMR
705,SAN VICENTE Y LAS GRANADINAS,SANVICENTINA,n,n,VCT
708,SANTA HELENA,BRITANICA,n,n,SHN
715,SANTA LUCIA,SANTALUCENSE,n,n,LCA
717,SANTA SEDE,SANTA SEDE,n,n,VAT
720,SANTO TOME Y PRINCIPE,SANTOTOMENSE,n,y,STP
728,SENEGAL,SENEGALESA,n,y,SEN
729,SERBIA,SERBIA,n,y,
730,SVALBARD,NORUEGA,n,n,SJM
731,SEYCHELLES,SEYCHELLESA,n,y,SYC
735,SIERRA LEONA,LEONESA,n,y,SLE
741,SINGAPUR,SINGAPURIANA,n,n,SGP
744,REP. ARABE SIRIA,SIRIA,n,y,SYR
748,SOMALIA,SOMALI,n,y,SOM
750,SRI LANKA,ESRILANQUES,n,y,LKA
756,SUDAFRICA,SUDAFRICANA,n,y,ZAF
759,SUDAN,SUDANESA,n,y,SDN
764,SUECIA,SUECA,n,n,SWE
767,SUIZA,SUIZA,n,n,CHE
770,SURINAME,SURINAMESA,n,n,SUR
773,SWAZILANDIA,SWAZI,n,y,SWZ
774,TAIWAN,TAIWANESA,n,n,TWN
775,TAYIKISTAN,TAYIKISTANI,n,y,TJK
776,TAILANDIA,TAILANDESA,n,y,THA
777,TIBET,CHINA,n,y,CHN
778,TERRIT. BRITANICO EN ANTARTIDA,BRITANICA,n,n,GBN
779,TERRIT. BRIT. EN EL OCEANO INDICO,BRITANICA,n,n,IOT
780,REP. UNIDA DE TANZANIA,TANZANIA,n,y,TZA
781,TIERRAS AUSTALES Y ANTARTICAS,FRANCESA,n,n,ATF
782,TAJIKISTAN,DUSHANBE,n,n,TJK
783,TIMOR ORIENTAL,INDONESIA,n,y,TMP
800,TOGO,TOGOLESA,n,y,TGO
810,TONGA,TONGANESA,n,y,TON
812,TOQUELAU,NEOZELANDESA,n,n,TKL
815,TRINIDAD Y TOBAGO,TRINITARIA,n,n,TTO
820,TUNEZ,TUNECINA,n,y,TUN
824,TURKMENISTAN,ASHGABAT,n,n,
827,TURQUIA,TURCA,n,n,TUR
828,TUVALU,TUVALUANA,n,y,TUV
829,TURKMENISTAN,TURCOMANA,n,y,TKM
830,UCRANIA,UCRANIANA,n,y,UKR
833,UGANDA,UGANDESA,n,y,UGA
840,FEDERACION DE RUSIA,RUSA,n,y,RUS
842,UNION MYANMAR,UNION MYANMAR,n,y,
845,URUGUAY,URUGUAYA,n,n,URY
847,UZBEKISTAN,UZBEQUI,n,y,UZB
849,VANUATU,VANUATUENSE,n,y,VUT
850,VENEZUELA,VENEZOLANA,n,n,VEN
855,VIET NAM,VIETNAMITA,n,y,VNM
866,ISLAS VIRGENES BRITANICAS,BRITANICA,n,n,VGB
867,ISLAS VIRGENES ESTADOUNIDENSES,ESTADOUNIDENSE,n,n,VIR
880,YEMEN,YEMENITA,n,y,YEM
885,YUGOSLAVIA,YUGOSLAVA,n,y,YUG
888,ZAIRE,ZAIRE,n,y,
890,ZAMBIA,ZAMBIANA,n,y,ZMB
892,ZIMBABWE,ZIMBABWUANA,n,y,ZWE
895,ANGUILA,BRITANICO,n,n,AIA
900,ISLAS TURKS Y CAICOS,BRITANICA,n,n,TCA
902,POINTE A PITRE,SIN,n,y,
905,T,SIN,y,y,
910,VILNA,SIN,n,y,
915,YAMENA,SIN,n,y,
920,YIBUTI,SIN,n,n,DJI
921,ANTILLAS HOLANDESAS,HOLANDESA,n,n,ANT
922,GRAN BRETAÑA,BRITANICA,n,n,GBR
923,HOLANDA,HOLANDESA,n,n,NLD
924,PALESTINA,PALESTINA,n,y,PSE
925,AFRICA,AFRICANA,n,y,
926,SLOVENIJE,,n,y,SVN
927,LITHUANIA,LITHUANIA,n,n,LTU
928,ERITREA,ERITREA,n,y,ERI
929,ESCOCIA,ESCOSESA,n,y,GBR
930,GALES,GALESA,n,y,GBR
931,INGLATERRA,INGLESA,n,y,GBR
932,IRLANDA DEL NORTE,IRLANDESA,n,n,IRL
933,LATVIJAS REPUBLICA,LATVIJAS,n,y,LVA
934,ROYAUME DU MAROC,ROYAUME DU MAROC,n,y,MAR
998,CENTROAFRICA,CENTROAFRICANO,n,y,XXX
999,DESCONOCIDO ,DESCONOCIDA,n,n,XXA
